{"componentChunkName":"component---src-pages-index-tsx","path":"/","result":{"data":{"my":{"gatsbyImageData":{"layout":"constrained","backgroundColor":"#f8f8f8","images":{"fallback":{"src":"/static/3493db206b99402b692b66e97cbad111/a776c/myimage.jpg","srcSet":"/static/3493db206b99402b692b66e97cbad111/a776c/myimage.jpg 20w,\n/static/3493db206b99402b692b66e97cbad111/8e0a7/myimage.jpg 750w,\n/static/3493db206b99402b692b66e97cbad111/e972b/myimage.jpg 1080w,\n/static/3493db206b99402b692b66e97cbad111/e36e6/myimage.jpg 1366w,\n/static/3493db206b99402b692b66e97cbad111/ba08e/myimage.jpg 1920w","sizes":"(min-width: 20px) 20px, 100vw"},"sources":[{"srcSet":"/static/3493db206b99402b692b66e97cbad111/bf926/myimage.webp 20w,\n/static/3493db206b99402b692b66e97cbad111/30bd7/myimage.webp 750w,\n/static/3493db206b99402b692b66e97cbad111/d5fd5/myimage.webp 1080w,\n/static/3493db206b99402b692b66e97cbad111/4b410/myimage.webp 1366w,\n/static/3493db206b99402b692b66e97cbad111/c33e2/myimage.webp 1920w","type":"image/webp","sizes":"(min-width: 20px) 20px, 100vw"}]},"width":20,"height":27}},"allMdx":{"edges":[{"node":{"id":"84994b82-1871-5194-afe1-cc74e917f184","frontmatter":{"title":"從黑暗時代到現代化的雲端部署與維運","description":"dotnetconf 2021 ＠ study4 從黑暗時代到現代化的雲端部署與維運","date":"20 Dec 2021"},"fields":{"path":"/2021/12/20/dotnetconf-study4-bruno"}}},{"node":{"id":"e4bbc17f-f241-51ce-b14c-3be6227b868a","frontmatter":{"title":"Logstash Azure event hub input 設定","description":"最近又在規劃ELK的設定，這次比較不一樣的地方我選擇了elastic cloud以及服務部署的方式都採用PaaS的方式作為部署， 加掛volume或是在機器上安裝filebeat都是一個比較困難的事情，所以一開始考慮使用azure blob queue的方式存放log， 但後來選擇了官方有提供的input套件，Azure Event Hub來寫log在使用logstash去讀取傳送到elasticsearch上","date":"30 Oct 2021"},"fields":{"path":"/2021/10/30/logstash-azure-event-hub-input"}}},{"node":{"id":"fe011374-943c-590a-8db4-3e38b6544b07","frontmatter":{"title":"受Azure管理的免費憑證","description":"在網頁開發中，SSL憑證已經是一個不可或缺的一件事情！網路上可以找到許多免費的憑證使用，如let's encrypt、ZeroSSL 都可以幫你產生免費的憑證，唯一麻煩的事情是三個月就需要重新處理憑證問題，在雲端供應商中AWS有提供ACM微軟也有提供類似於ACM的服務， 只要你使用了這些雲端供應商就可以免費的為你產生憑證","date":"13 Aug 2021"},"fields":{"path":"/2021/08/13/azure-managed-certificate-app-service"}}},{"node":{"id":"08787b58-f6be-5e2d-aa50-ebb718db0fc3","frontmatter":{"title":"Selenium Grid 4 體驗","description":"最近在處理系統交接並且升級相關的系統發現了Selenium Grid出了第四版現正Beta時讓我躍躍欲試， 以前Selenium Grid 3.x版本的時候UI說真的不怎麼樣，做了Selenium Grid 4的時候樣式跟整個畫面的設計全改了。 整個畫面看起來舒服了不少，但相關的東西也改了不少讓我一開始做測試的時候跌了不少次","date":"07 Apr 2021"},"fields":{"path":"/2021/04/07/selenium-grid-4"}}},{"node":{"id":"c53d9b8c-ad32-5cfd-812e-c56920282a7a","frontmatter":{"title":"Select Number TDD練習","description":"之前同事去參加面試，在面試的時候有一道上機考的題目，我覺得很有趣並且是一個很好練習的一道題目，一開始我讓我們前端的新人試著寫出這道題， 沒想到所有新人都完成了，所以我想嘗試一下TDD的方式來撰寫這道題目。","date":"01 Apr 2021"},"fields":{"path":"/2021/04/01/select-number-tdd"}}},{"node":{"id":"31ef8ea4-26fa-511e-b2eb-e53c0e63bfa0","frontmatter":{"title":"React 入門的學習之路","description":"昨天面試一位React新手雖然最後因為一些原因沒有Hire她，但他問了一個問題讓我覺得很棒：可以有什麼方法可以讓我的能力加強嗎？ 在我第一次接觸React距今已經過了好久了，久到我已經忘記我是如何啟動第一個React的APP...但身為一個React開發者又是一位面試官的角色， 未來還會有更多學習React的新手不斷進入，我想好好分享一下在面試一個React的新人時我在乎哪些技能另外也能當作學習React的入門時一個學習路徑","date":"12 Jan 2021"},"fields":{"path":"/2021/01/12/the-react-first-time"}}},{"node":{"id":"c6d690b5-9e6e-5d4f-8a36-6f1c8d4df69c","frontmatter":{"title":"Elasticsearch 效能調整與自動維運","description":"在Index Management中有個index templates的頁簽，在這裡可以改變一些index的行為或是屬性， 有些index屬性對於整個ELK的查詢或是機器的影響是很巨大的，當Log量越大的時候就需要改變一些設定， 尤其是放在雲端的ELK，如果使用越大的機器消費金額就會變得很可觀，在不是賺錢的機器上還是能省則省。","date":"08 Jan 2021"},"fields":{"path":"/2021/01/08/elasticsearch-tuning-and-auto-operation"}}},{"node":{"id":"042df689-c15c-5277-9233-cee424b1034a","frontmatter":{"title":"Next.js 的Layout最佳配置","description":"新專案即將完成之際，我們開始對各個頁面上的效能與一些過去被我們忽略的問題進行修正， 在這修正的過程中我發現了在每一次頁面切換時都會出現網站的Logo消失又再出現的問題， Logo是一個經常變動的圖片所以在專案中是透過GQL取得Logo的CDN位置後才做渲染的， 再深入排查後才發現原來過去我的觀念不是非常正確所以用這篇來筆記一下正確地處理做法，當作小抄避免未來再犯同樣的錯誤。","date":"07 Jan 2021"},"fields":{"path":"/2021/01/07/best-practice-layout-in-nextjs"}}},{"node":{"id":"ff06f0c8-ce30-5349-a3cb-8d9486624064","frontmatter":{"title":"如何讓AWS EC2開機後就能上線","description":"在雲端服務一定會遇到的是機器的擴展(scale out)與縮編(scale in)的問題，如果一個AutoScaling Group觸發了機器的成長時肯定是無法靠手動 的方式來安裝機器，所以必須要透過全資動畫的方式進行，這時候我一開始的想法是在AutoScaling發生的時候觸法Jenkins的Job來安裝系統， 但這有個問題是我整個aws的服務都必須依賴在Jenkins上，後來同事指導了一個做法只需要透過AWS的設定就可以自動裝機了！","date":"09 Dec 2020"},"fields":{"path":"/2020/12/09/ec2-provisioned-self-install"}}},{"node":{"id":"95c13984-467b-5608-b0af-842f42fc468a","frontmatter":{"title":"Terraform 做 AWS IaC","description":"一直在公司使用ansible來做Cloud configuration但是ansible在cloud configuration上說真的略顯不足， 在之前的文章中我們很常使用`aws cli`來做相對應的處理。使用aws cli時要有更好的可讀性與維護性，通常都以JSON的格式輸入 因此在ansible中的playbook上就會有多餘的一些步驟去設定餵給aws cli的JSON。","date":"19 Sep 2020"},"fields":{"path":"/2020/09/19/terraform-aws-infrastructure-as-code"}}}],"pageInfo":{"currentPage":1,"totalCount":16,"perPage":10,"hasPreviousPage":false,"hasNextPage":true}}},"pageContext":{}},"staticQueryHashes":["2579648174","3328175880","3564308881","3673915224"]}