{
    "componentChunkName": "component---src-pages-index-tsx",
    "path": "/page",
    "result": {"data":{"my":{"gatsbyImageData":{"layout":"constrained","backgroundColor":"#f8f8f8","images":{"fallback":{"src":"/static/3493db206b99402b692b66e97cbad111/a776c/myimage.jpg","srcSet":"/static/3493db206b99402b692b66e97cbad111/a776c/myimage.jpg 20w,\n/static/3493db206b99402b692b66e97cbad111/8e0a7/myimage.jpg 750w,\n/static/3493db206b99402b692b66e97cbad111/e972b/myimage.jpg 1080w,\n/static/3493db206b99402b692b66e97cbad111/e36e6/myimage.jpg 1366w,\n/static/3493db206b99402b692b66e97cbad111/ba08e/myimage.jpg 1920w","sizes":"(min-width: 20px) 20px, 100vw"},"sources":[{"srcSet":"/static/3493db206b99402b692b66e97cbad111/bf926/myimage.webp 20w,\n/static/3493db206b99402b692b66e97cbad111/30bd7/myimage.webp 750w,\n/static/3493db206b99402b692b66e97cbad111/d5fd5/myimage.webp 1080w,\n/static/3493db206b99402b692b66e97cbad111/4b410/myimage.webp 1366w,\n/static/3493db206b99402b692b66e97cbad111/c33e2/myimage.webp 1920w","type":"image/webp","sizes":"(min-width: 20px) 20px, 100vw"}]},"width":20,"height":27}},"allMdx":{"edges":[{"node":{"id":"787e4452-769f-5cfe-b4f2-864bd0d30f3d","frontmatter":{"title":"使用Clion搭配platformio開發esp8266","description":"最近想把家中的電器可以跟apple homekit結合在一起省去一些麻煩順便可以帶來生活更好的狀態，但apple homekit的冷氣控制一個就要3700原， 對於家中有六台冷氣的我有點小貴，所以決定自己開發這樣的產品...順便也改造一下不太好用的窗簾機器人，讓他可以直接支援apple homekit，不需要再透過`捷徑`的方式來支援homekit\n在開始之前研究了一下許多arduino與Raspberry Pi兩者之間的選擇，發現了arduino在整個生態系來說完整不少，缺點是他基本上只支援C/C++的開發... Raspberry Pi 倒是可以使用.net或是node.js等等的語言，但許多的控制器或是傳感器支援的數量較少，並且價格也比較昂貴所以最後選擇了arduino， arduino中也有許多不同的板子，在選擇的時候的非常的困擾...後來我選擇了由樂鑫開發的ESP系列的板子好處是他已經內建了wifi功能， 所以可以直接使用不需要再加上wifi模組！","date":"09 Jun 2022"},"fields":{"path":"/2022/06/09/nodemcu-esp8266-platformio-with-clion"}}},{"node":{"id":"2b1d4c9d-3948-578c-be1a-21a757755bfb","frontmatter":{"title":"使用platformio上傳arduino時出現錯誤代碼(0107)","description":"第一次接觸arduino，很開心地寫下了一個閃爍板子上的LED程式碼後要上傳到板子，結果上傳時發生了錯誤 出現了Failed to write to target RAM (result was 0107)這樣的錯誤代碼，試了網路上很多的方式都沒有成功，最後發現了原來serial port 不正確...","date":"01 Jun 2022"},"fields":{"path":"/2022/06/01/arduino-use-platformio-upload-error"}}},{"node":{"id":"052cdfeb-fc92-549e-aa5a-0725abb66307","frontmatter":{"title":"自建Elasticsearch 8.2","description":"這週在處理自建的elasticsearch相關的狀況，今天處理告一段落後來個小筆記未來遇到才不會又搞了老半天...","date":"20 May 2022"},"fields":{"path":"/2022/05/20/self-hosted-elasticsearch"}}},{"node":{"id":"ce8caad0-57a1-53e0-9024-c7d72be71706","frontmatter":{"title":"Azure 的自動裝機","description":"在之前已經有寫過AWS的裝機處理，這次改用Azure同樣的可以讓系統從scale out到上線不需要人工的處理就可以完成系統的部署與設定","date":"20 Apr 2022"},"fields":{"path":"/2022/04/20/azure-self-install"}}},{"node":{"id":"91ad90cf-c0fc-5375-b080-98d1c8bd6b28","frontmatter":{"title":"弱點掃描-SSL加密演算法不安全的演算法","description":"最近公司資安檢查報告中被檢查出了一個關於SSL的加密連線的弱點，這個弱點是因為我們沒有把不安全的加密演算法關閉導致這個弱點的產生， 在公司的政策中線上的伺服器不能任意安裝任何程式，所以`IISCrypto`就只能放棄無法使用，所以我修改的部分是使用修改幾碼的方式進行， 由於我不太熟悉資安，修改後要如何驗證呢這些已知有問題的演算法是否已經正確的被關閉了呢？","date":"03 Jan 2022"},"fields":{"path":"/2022/01/03/vulnerability-scanning-for-ssl-support-algorithm"}}},{"node":{"id":"84994b82-1871-5194-afe1-cc74e917f184","frontmatter":{"title":"從黑暗時代到現代化的雲端部署與維運","description":"dotnetconf 2021 ＠ study4 從黑暗時代到現代化的雲端部署與維運","date":"20 Dec 2021"},"fields":{"path":"/2021/12/20/dotnetconf-study4-bruno"}}},{"node":{"id":"e4bbc17f-f241-51ce-b14c-3be6227b868a","frontmatter":{"title":"Logstash Azure event hub input 設定","description":"最近又在規劃ELK的設定，這次比較不一樣的地方我選擇了elastic cloud以及服務部署的方式都採用PaaS的方式作為部署， 加掛volume或是在機器上安裝filebeat都是一個比較困難的事情，所以一開始考慮使用azure blob queue的方式存放log， 但後來選擇了官方有提供的input套件，Azure Event Hub來寫log在使用logstash去讀取傳送到elasticsearch上","date":"30 Oct 2021"},"fields":{"path":"/2021/10/30/logstash-azure-event-hub-input"}}},{"node":{"id":"fe011374-943c-590a-8db4-3e38b6544b07","frontmatter":{"title":"受Azure管理的免費憑證","description":"在網頁開發中，SSL憑證已經是一個不可或缺的一件事情！網路上可以找到許多免費的憑證使用，如let's encrypt、ZeroSSL 都可以幫你產生免費的憑證，唯一麻煩的事情是三個月就需要重新處理憑證問題，在雲端供應商中AWS有提供ACM微軟也有提供類似於ACM的服務， 只要你使用了這些雲端供應商就可以免費的為你產生憑證","date":"13 Aug 2021"},"fields":{"path":"/2021/08/13/azure-managed-certificate-app-service"}}},{"node":{"id":"08787b58-f6be-5e2d-aa50-ebb718db0fc3","frontmatter":{"title":"Selenium Grid 4 體驗","description":"最近在處理系統交接並且升級相關的系統發現了Selenium Grid出了第四版現正Beta時讓我躍躍欲試， 以前Selenium Grid 3.x版本的時候UI說真的不怎麼樣，做了Selenium Grid 4的時候樣式跟整個畫面的設計全改了。 整個畫面看起來舒服了不少，但相關的東西也改了不少讓我一開始做測試的時候跌了不少次","date":"07 Apr 2021"},"fields":{"path":"/2021/04/07/selenium-grid-4"}}},{"node":{"id":"c53d9b8c-ad32-5cfd-812e-c56920282a7a","frontmatter":{"title":"Select Number TDD練習","description":"之前同事去參加面試，在面試的時候有一道上機考的題目，我覺得很有趣並且是一個很好練習的一道題目，一開始我讓我們前端的新人試著寫出這道題， 沒想到所有新人都完成了，所以我想嘗試一下TDD的方式來撰寫這道題目。","date":"01 Apr 2021"},"fields":{"path":"/2021/04/01/select-number-tdd"}}}],"pageInfo":{"currentPage":1,"totalCount":21,"perPage":10,"hasPreviousPage":false,"hasNextPage":true}}},"pageContext":{"pageNumber":0,"humanPageNumber":1,"skip":0,"limit":10,"numberOfPages":3,"previousPagePath":"","nextPagePath":"/page/2"}},
    "staticQueryHashes": ["2069471281","2579648174","3564308881","3673915224"]}